{
    "goals": [
        {
            "longitude": 30.3160286,
            "latitude": 59.9366726,
            "events": [
                {
                    "type": "status",
                    "tag": "point_load",
                    "date": "2019-08-30T00:00:00Z",
                    "time": "10:00",
                    "time_to": "11:00",
                    "location_name": {
                        "country": "Россия",
                        "region": "Санкт-Петербург (регион)",
                        "city": "Санкт-Петербург",
                        "address": "Санкт-Петербург, Невский проспект"
                    }
                }
            ],
            "ordinal_id": 1,
            "trace": true
        },
        {
            "longitude": 30.3359985,
            "latitude": 59.9341009,
            "events": [
                {
                    "type": "status",
                    "tag": "point_unload",
                    "date": "2019-08-30T00:00:00Z",
                    "time": "11:00",
                    "time_to": "12:00",
                    "location_name": {
                        "country": "Россия",
                        "region": "Санкт-Петербург (регион)",
                        "city": "Санкт-Петербург",
                        "address": "Санкт-Петербург, Невский проспект"
                    }
                }
            ],
            "ordinal_id": 2,
            "trace": true
        }
    ],
    "traces": [
        {
            "car": {
                "car_status": 3,
                "transportation_info": {
                    "driver": {
                        "phone": "+70000000000",
                        "first_name": "Тест",
                        "second_name": "Тестович",
                        "patronymic": ""
                    },
                    "truck": {
                        "truck_model": "Камаз",
                        "trailer_model": null,
                        "semitrailer_model": null,
                        "truck_number": "А 000 АА 777 RUS"
                    },
                    "load": {
                        "weight": 1.0,
                        "volume": 1.0,
                        "cargo_type_name": "Автомобиль(ли)",
                        "pack_type_name": "не указано"
                    }
                }
            },
            "points": [
                {
                    "longitude": 39.2924461,
                    "latitude": 51.6432873,
                    "events": [],
                    "location_date": "2019-12-11T13:48:54Z",
                    "is_fake": false,
                    "is_disabled": false,
                    "is_no_data": false,
                    "is_power_saving": false,
                    "is_empty_run": true,
                    "location_id": "5e25de7b96a9860edc7d2562"
                },
                {
                    "longitude": 39.2923546,
                    "latitude": 51.64327771,
                    "events": [],
                    "location_date": "2019-12-11T13:51:06Z",
                    "is_fake": false,
                    "is_disabled": false,
                    "is_no_data": false,
                    "is_power_saving": false,
                    "is_empty_run": true,
                    "location_id": "5e25de7b96a9860edc7d2563"
                },
                {
                    "longitude": 39.29243496,
                    "latitude": 51.64337106,
                    "events": [],
                    "location_date": "2019-12-11T13:53:15Z",
                    "is_fake": false,
                    "is_disabled": false,
                    "is_no_data": false,
                    "is_power_saving": false,
                    "is_empty_run": false,
                    "location_id": "5e25de7b96a9860edc7d2564"
                },
                {
                    "longitude": 39.29253856,
                    "latitude": 51.64333565,
                    "events": [],
                    "location_date": "2019-12-11T13:54:25Z",
                    "is_fake": false,
                    "is_disabled": false,
                    "is_no_data": false,
                    "is_power_saving": false,
                    "is_empty_run": false,
                    "location_id": "5e25de7b96a9860edc7d2565"
                },
                {
                    "longitude": 39.29239545,
                    "latitude": 51.64329328,
                    "events": [],
                    "location_date": "2019-12-11T13:57:26Z",
                    "is_fake": false,
                    "is_disabled": false,
                    "is_no_data": false,
                    "is_power_saving": false,
                    "is_empty_run": true,
                    "location_id": "5e25de7b96a9860edc7d2566"
                },
                {
                    "longitude": 39.29237865,
                    "latitude": 51.64334556,
                    "events": [],
                    "location_date": "2019-12-11T13:58:56Z",
                    "is_fake": false,
                    "is_disabled": false,
                    "is_no_data": false,
                    "is_power_saving": false,
                    "is_empty_run": true,
                    "location_id": "5e25de7b96a9860edc7d2567"
                },
                {
                    "longitude": 39.29219862,
                    "latitude": 51.6434254,
                    "events": [],
                    "location_date": "2019-12-11T14:04:48Z",
                    "is_fake": false,
                    "is_disabled": false,
                    "is_no_data": false,
                    "is_power_saving": false,
                    "is_empty_run": false,
                    "location_id": "5e25de7b96a9860edc7d2568"
                },
                {
                    "longitude": 39.2921593,
                    "latitude": 51.6433403,
                    "events": [],
                    "location_date": "2019-12-11T14:07:56Z",
                    "is_fake": false,
                    "is_disabled": false,
                    "is_no_data": false,
                    "is_power_saving": false,
                    "is_empty_run": false,
                    "location_id": "5e25de7b96a9860edc7d2569"
                },
                {
                    "longitude": 39.29219685,
                    "latitude": 51.64342109,
                    "events": [],
                    "location_date": "2019-12-11T14:47:47Z",
                    "is_fake": false,
                    "is_disabled": false,
                    "is_no_data": false,
                    "is_power_saving": false,
                    "is_empty_run": true,
                    "location_id": "5e25de7b96a9860edc7d256a"
                },
                {
                    "longitude": 39.29272351,
                    "latitude": 51.6432034,
                    "events": [],
                    "location_date": "2019-12-11T14:48:27Z",
                    "is_fake": false,
                    "is_disabled": false,
                    "is_no_data": false,
                    "is_power_saving": false,
                    "is_empty_run": true,
                    "location_id": "5e25de7b96a9860edc7d256b"
                }
            ]
        }
    ]
}